collectionName,inventoryNb,objectName,objectTitle,objectCulture,geography,dating,material,technique,dimensions,legalRightOwner,objectDescription,objectLanguage,url,imageurl,image
String instruments,0223,,,,,AD 1730 - AD 1790,,,"Height: 61,6 cm",Musées royaux d'art et d'histoire/Koninklijke Musea voor Kunst en Geschiedenis,"Six-string Pardessus by an anonymous, probably French, eighteenth-century maker. The back is flat, with no purfling, with an angle in the upper part, and with a crack at the heel. It is reinforced inside by a sound post plate. Ribs and back are made of lightly and finely flamed maple. The top made of two-part spruce, shows several unevenly repaired fractures. The thin flat neck may have been slightly narrowed down later. It is covered with a fingerboard, veneered with a layer of thin ebony, and the pegbox is adorned with a relatively large female head. The tailpiece and the bridge are probably not original. The entire instrument is covered with a red-brown varnish. The pardessus was developed at the end of the 17th century to perform solo music within the reach of the violin. The use of the viol shape form, of frets, and the vertical playing position made it acceptable for men and especially ladies of the higher class. The instrument fell into disuse at the end of the 18th century. This pardessus was owned by François-Joseph Fétis (1784-1871), the first director of the Brussels Royal Conservatory of Arts and ""maestro di capella"" for King Leopold I. In 1872, his collection of musical instruments was acquired by the Belgian State and stored in the Royal Conservatory, until the 1877 opening of the Musical Instrument Museum.  L. approx. 63 cm. L. approx. 19.7 cm H sides approx. 5.2 cm String length approx. 32.7 cm  Bibliography Victor-Charles Mahillon, Catalogue descriptif et analytique du Musée Instrumental du Conservatoire Royal de Musique de Bruxelles, pt. 1, Ghent, 2/1893, 1880, p. 320.",English,https://carmentis.be:443/eMP/eMuseumPlus?service=ExternalInterface&module=collection&objectId=109190&viewType=detailView,,0223.jpg
Asian musical instruments,0714,,"Siaku-hachi, Shakuhachi",,,before AD 1884,,,"Height: 54,6 cm, Width: 4,5 cm, Depth: 4,5 cm",Musées royaux d'art et d'histoire/Koninklijke Musea voor Kunst en Geschiedenis,"The shakuhachi is a Japanese end-blown notched flute with five finger holes, four on the front and one thumb hole. It is related to other flutes in the Far East, such as the Chinese xiao and dongxiao, and the Korean danso and tungso. The sound is produced by blowing against the sharp edge of a notch in the rim of the flute, as opposed to the recorder, which has a duct inside the pipe to direct the airstream against the labium.  'Shakuhachi' ( 尺八 ) means '1 (Japanese) foot 8 inches' or about 54.5 cm. This corresponds to the standard length of a shakuhachi in D. By extension the word is used for all flutes of the same type, regardless of their length, which can vary from 1.1 to more than 3 feet. Another name for the dongxiao, a very similar flute with an extra finger hole from the Chinese province of Fujian, is chiba ( 尺八 ), which also means '1 foot 8 inches'.  The shakuhachi is traditionally made of a length of madake-bamboo (Phyllostachys bambusoïdes) with seven nodes, which has been cut just above the root. On the root side it has four nodes on top of each other. The notch is cut out in the seventh node, which forms the rim of the instrument. The cutting above the root, the nodes, the natural irregularities and the stains in the bamboo are all part of the aesthetics of the instrument. Whether or not the bore is lacquered inside depends on the building school. At present there are also lathe-turned wooden and synthetic shakuhachis, but these are mainly instruments for beginners.  By successively opening the five finger holes the pentatonic tone scale D-F-G-A-C-D is obtained. It doesn't have semitones, whereas semitones are very common in Japanese music. A fully chromatic scale, with all twelve semitones, can be obtained by various fingerings and by changing the blowing angle. As a result the instrument doesn't have a uniform tone quality on all notes. In Western music this may be considered a shortcoming, but for Japanese musicians this multitude of timbres constitutes the richness of their music. A shakuhachi player even deliberately seeks sounds which are considered unmusical or parasite sounds in the West, such as breath sounds and audible fingering. This inclination to impurity is also typical of other Japanese musical instruments.  The shakuhachi was first imported in Japan from China in the early eighth century, along with the other instruments of the gagaku court orchestra. After a while the instrument became obsolete, but a few centuries later it reappeared in Japanese sources. In its present form the shakuhachi strongly resembles the instrument played since the seventeenth century by the wandering komuso begging monks. For these Zen monks of the Fuke school shakuhachi playing was an accompaniment to meditation. The repertoire of the komuso monks was noted down and published in the eighteenth century. The pieces collected at the time are known as honkyoku. They constitute the basic repertoire of the Kinko school. The notation does not give actual notes, but indicates fingerings and tone colour. The rhythm and ornamentation are visually suggested.  In 1871, at the beginning of the Meiji period, the Fuke school was closed, and the shakuhachi repertoire was secularized. Since then flutists have also played minyo (folk songs) and chamber music, along with the traditional honkyoku. In the traditional trio with koto (zither) and shamisen (luit) the shakuhachi has gradually taken the place of the kokyu (fiddle).  Besides the Kinko school the Tozan school was founded in the early twentieth century. It created a new repertoire and developed a new type of notation that precisely indicates the rhythm.  Now Western musicians discovered the shakuhachi and some followed a full traditional training in Japan, transmitting their art abroad in their turn. Shakuhachi players keep writing new pieces. Contemporary composers like Toru Takemitsu, Akira Tamba and the Belgian Claude Ledoux have written pieces for shakuhachi and Western orchestra or other Japanese instruments.  The Mim's shakuhachi (inv. 0714) is made of a length of madake. The nodes at the root end have been polished away. The inside is lacquered red. The kinko type mouthpiece is strengthened with horn. The instrument bears the maker's mark.  This flute was part of a set of twelve high quality Japanese instruments that were donated to the museum by the Music Institute of Tokyo in 1884, after they had been exhibited at the International Health Exhibition in London.  Claire Chantrenne",English,https://carmentis.be:443/eMP/eMuseumPlus?service=ExternalInterface&module=collection&objectId=110101&viewType=detailView,,0714.jpg
String instruments,1358,,Quinton d'amour,,,AD 1730 - AD 1772,,,"Height: 64,6 cm, Width: 20,3 cm",Musées royaux d'art et d'histoire/Koninklijke Musea voor Kunst en Geschiedenis,"Quinton d'Amour with 5 stopped strings and 6 sympathetic strings, covered with a red-brown varnish. The strings are attached to a white plate with pins, at the bottom of the ribs, as was the case with the other quinton d’amour and the viola d’amore by Salomon (inv. No. 0481 and 1389). The sympathetic strings run over the top of this plate, which serves as a kind of high bottom nut, in which holes for the melodic strings were provided. A tailpiece was not necessary with this construction. The two parts back with three-part purfling is arched. Ribs and back are made of flamed maple. The sound box has a normal violin shape, with corner blocks and glue strips on the inside and with f-holes in the two-part spruce top, also with three-part purfling. The top has repaired fractures. In the upper block one can see three holes where there used to be nails for the attachment of the neck. A classic violin curl closes the pegbox. The latter is decorated with floral patterns at the back and on the sides. Furthermore, it is fully open at the front and closed at the back for four of the five melody strings. The fingerboard, open at the back for the resonance strings, has a layer of veneered ebony at the front and bears traces of bound frets. This instrument (inv. No. 1358) is similar to Salomon's other quinton d'amour (inv. No. 0481), but the edges and corners of top and back seem heavier, while the varnish also differs in color and texture from those of both other Salomon instruments from the collection (inv. no. 0481 and 1389). Moreover the neck is more rounded, which does not facilitate playing in the ""da gamba"" position. The instrument may have been assembled, rebuilt or completely constructed by a certain Jean Leclerc, who then signed the instrument inside with a pencil. Maybe this could be Joseph-Nicolas Leclerc from Mirecourt, working in Paris since 1760. This quinton d 'amour (inv. No. 1358) was part of the Auguste Tolbecque collection. In 1879 his collection of musical instruments was purchased by the Instrument Museum. In 1885 a viola d’amore by Salomon from the Museum in London was exhibited. Perhaps this instrument was meant, or else the quinton d’amour (inv. No. 0481) or the viola d’amore (inv. No. 1389), both also by his hand.  Labels: 1) ""SALOMON / A PARIS"" (brand) 2) ""Jean nicolas / leclerc"" (handwriting on the back)  L. approximately 65.2 cm L. approx. 25 cm H. sides approx. 31 cm String length approx. 32.8 cm.  Bibliography Victor-Charles Mahillon, Catalogue descriptif et analytique du Musée Instrumental du Conservatoire Royal de Musique de Bruxelles, pt. 3, Ghent, 1900, p. 26.",English,https://carmentis.be:443/eMP/eMuseumPlus?service=ExternalInterface&module=collection&objectId=109430&viewType=detailView,,1358.jpg
African musical instruments,2013.076,,,Moosé (Population),,AD 2012,,,"Height: 48,5 cm, Width: 25 cm, Depth: 11,5 cm",Musées royaux d'art et d'histoire/Koninklijke Musea voor Kunst en Geschiedenis,"The ruudga is a single-stringed fiddle played by the Mossi people in Burkina Faso. The Mossi people are the largest ethnic group in the country, constituting more than 50 % of the population. They live in the center of Burkina Faso, on a plateau which covers a large part of the country. The landscape on this plateau is mainly savannah, with grassland plains and a few isolated hills. The Mossi Empire was established around the eleventh century, and its organization into a central kingdom and several smaller principalities, each with their own ruler and royal court, stratified according to royal, noble and commoner patrilineages, still exists today.  The ruudga is a spike bowl fiddle, a fiddle type widely distributed throughout Western Africa. Other examples include the Hausa goge, the Dagbamba gondze and the Fulbe nyanyeru. As with most West African spike bowl fiddles, the resonator of a ruudga consists of a hemispherical section of gourd, the open face of the gourd being covered with animal skin. Traditionally, the resonator of a ruudga was covered with monitor lizard skin, but many instrument makers have now switched to goat skin, which is more readily available. When the soundboard consists of goat skin it is stretched onto the gourd by sewing it onto a leather cord or twig encircling the resonator, which is then fastened with white cotton rope. When reptile skin is used, this is pulled tight over the resonator, a leather strip is glued around the entire circumference, and then nails are added for extra security. A wooden neck is inserted through the resonator, terminating in a spike at the base. The single string is made of multiple strands of horse hair and runs from the spike at the base over the bridge to the upper part of the neck where it is tied with rope. The bridge is small and has an inverted V-shape, typically consisting of a naturally bifurcating piece of wood. The bridge is placed on the skin on its two ‘feet’ near the top edge of the instrument, held in place by the tension of the string. The single sound hole is round and cut into the skin, often on the left side.  Traditionally, the ruudga is tuned either by tightening the string with the rope that attaches it to the top of the neck, or by a small triangular piece of wood or bone, inserted at the base of the resonator, between the string and the resonator. Pushing the triangle further in towards its broader end causes more tension on the string and thus a higher note, while releasing it lowers the tone. In our instrument of the month however, a modernization has been carried out by maker and player Nouss Nabil. To facilitate tuning, he developed a metal tuning device which is inserted through the top of the neck. The string is fastened to the protruding tip of the device, and can be tightened or loosened with the flat top of the peg on the other side, much like a guitar tuning system.  Traditionally, the ruudga is an instrument associated with blind people. They play it in various locations and on different occasions. Firstly, they are able to make some money by performing in markets and cabarets (local cafes where millet beer is served), playing the ruudga and singing topical or social comment songs. These songs may be based on folk tales, proverbs or current events. The text of these songs is often improvised, enabling the performer to adapt the content to the occasion. For example, when performing in a market the musician may incorporate the latest news, adding his own personal view on it, or he may welcome visitors who have just arrived from another town or village. Secondly, fiddle players may be invited to the royal court to sing praise songs. This practice exists at every level of the Mossi kingdom, from the central royal court to the smaller courts in the districts and communities. The fiddle has played an important role at the Mossi royal palace since the establishment of the Mossi Empire, being essential to several ceremonies and rituals.  Thus, ruudga players occupy an ambivalent position in Mossi society. They often belong to the socio-economic fringe of society, relying on gifts from the audience when performing in local beer houses. At the same time they are highly valued because of their performances at the royal court. Playing for the king not only provides them with a stable income, it also enhance their social status.  Our instrument of the month (inv. 2013.076) was made and donated by Nouss Nabil from Bobo-Dioulasso.  Carolien Hulshof",English,https://carmentis.be:443/eMP/eMuseumPlus?service=ExternalInterface&module=collection&objectId=180348&viewType=detailView,,2013.076.jpg
Egypt,E.05279,,Fragment of a seal-amulet in the shape of a squatting figure by the name of Nesu-Montu,Egyptian,,1850 BC - 1650 BC,,,"Height: 3,9 cm, Width: 2,8 cm",Musées royaux d'art et d'histoire/Koninklijke Musea voor Kunst en Geschiedenis,"The base of this seal amulet bears an inscription with the name and title of the owner: “imy-kht n pr-Hdj n […] Nsw-Mntjw kA nfr wAH”, ‘he who follows (bodyguard?) in the treasury of […], Nesu-Montu, that his perfect soul may continue to exist’. Originally this object represented a naked, seated child holding a finger to his mouth.",English,https://carmentis.be:443/eMP/eMuseumPlus?service=ExternalInterface&module=collection&objectId=81288&viewType=detailView,,e.05279.jpg
Egypt,E.05350,,Hedgehog seal-amulet,Egyptian,,664 BC - 331 BC (uncertain),,,"Height: 2,8 cm, Width: 1,7 cm, Depth: 1,8 cm",Musées royaux d'art et d'histoire/Koninklijke Musea voor Kunst en Geschiedenis,"This small amulet in faience represents a hedgehog on a pedestal. The back of the animal is divided in squares, to show the many spikes. On the base, a couple of hieroglyphs that may form an inscription: “[May] Bastet give good things and life to the king”.",English,https://carmentis.be:443/eMP/eMuseumPlus?service=ExternalInterface&module=collection&objectId=81376&viewType=detailView,,e.05350.jpg
Egypt,E.05352,,Cowroid with wish for Bastet,Egyptian,,945 BC - 715 BC,,,"Height: 2,4 cm, Width: 1,2 cm, Depth: 0,8 cm",Musées royaux d'art et d'histoire/Koninklijke Musea voor Kunst en Geschiedenis,"The base of this seal amulet in the shape of a kauri shell shows hieroglyphs which form a wish, directed to the cat goddess Bastet: “di Bastt nfr w”, ‘[May] Bastet give many good things’. A monkey standing on its hind legs holds the hieroglyph “nfr”, ‘good, beautiful’. Above, the triangle “di”, ‘give’, the vase “bAs” and the sign “t”. Seal amulets with this wish date between the 19th and 22nd dynasty, especially from the 22nd dynasty.",English,https://carmentis.be:443/eMP/eMuseumPlus?service=ExternalInterface&module=collection&objectId=81378&viewType=detailView,,e.05352.jpg
Egypt,E.05354b,,Scarab with inscription naming Bastet,Egyptian,,747 BC - 525 BC,,,"Height: 1,8 cm, Width: 1,2 cm, Depth: 0,8 cm",Musées royaux d'art et d'histoire/Koninklijke Musea voor Kunst en Geschiedenis,"The base of this scarab displays hieroglyphs that form the inscription “di bAstt nfr(w)”, ‘may Bastet give good things’.",English,https://carmentis.be:443/eMP/eMuseumPlus?service=ExternalInterface&module=collection&objectId=81382&viewType=detailView,,e.05354b.jpg
Egypt,E.05590e,,Scarab with Thoth,Egyptian,,664 BC - 343 BC (uncertain),,,"Height: 1,4 cm, Width: 0,9 cm, Depth: 0,6 cm",Musées royaux d'art et d'histoire/Koninklijke Musea voor Kunst en Geschiedenis,"The base of this scarab shows a god with ibis head (Thoth) and crowned with an ‘atef’, sitting on a throne. Before him, a large uraeus with two plumes on its head. Both the material and morphology of the scarab suggest that this may be a Phoenician scarab contemporary with the Late Period.",English,https://carmentis.be:443/eMP/eMuseumPlus?service=ExternalInterface&module=collection&objectId=81668&viewType=detailView,,e.05590e.jpg
Egypt,E.05590f,,Double scarab,Egyptian,,1295 BC - 656 BC,,,"Height: 0,9 cm, Width: 0,7 cm, Depth: 0,4 cm",Musées royaux d'art et d'histoire/Koninklijke Musea voor Kunst en Geschiedenis,"Double scarabs consisting of two small scarabs longitudinally connected to each other and with an individual decoration on their bases, appear from Middle Kingdom onwards, but flourished in the New Kingdom. The two scarabs of this example show the same composition: the falcon “Hr” behind the life sign “ankh”. Behind the bird, more hieroglyphs: possibly the snake “dj” and the sign “t”, forming “dj.t” (‘eternal’). The composition can be read as “ankh Hr dj.t” (‘[may] Horus lives forever’). Scarabs with this wish were produced in the Ramessid Period and the Third Intermediate Period (19th-25th dynasty).",English,https://carmentis.be:443/eMP/eMuseumPlus?service=ExternalInterface&module=collection&objectId=81669&viewType=detailView,,e.05590f.jpg
Egypt,E.05706.2,,Scarab,Egyptian,,945 BC - 656 BC (uncertain),,,"Height: 2,1 cm, Width: 1,5 cm, Depth: 0,9 cm",Musées royaux d'art et d'histoire/Koninklijke Musea voor Kunst en Geschiedenis,The base of this scarab has a decoration with loops which may refer to hieroglyphs as “h” and “nbw”.,English,https://carmentis.be:443/eMP/eMuseumPlus?service=ExternalInterface&module=collection&objectId=81855&viewType=detailView,,e.05706.2.jpg
Egypt,E.07036a,,Scarab with seal of the necropolis,Egyptian,,747 BC - 656 BC (uncertain),,,"Height: 4 cm, Width: 2,7 cm, Depth: 1,7 cm",Musées royaux d'art et d'histoire/Koninklijke Musea voor Kunst en Geschiedenis,"Scarabs of this type have the seal of the administration of the Theban necropolis on their base. The inscription shows a recumbent jackal (Anubis) and nine prisoners, their hands tied to their back (also E.3223). Such scarabs appeared around the late 18th dynasty. The morphology of the scarab suggests a date around the 25th dynasty, though it may be a modern copy.",English,https://carmentis.be:443/eMP/eMuseumPlus?service=ExternalInterface&module=collection&objectId=84031&viewType=detailView,,e.07036a.jpg
Egypt,E.07953,,Scarab with the name of Amon,Egyptian,,747 BC - 525 BC,,,"Height: 2,3 cm, Width: 1,4 cm, Depth: 0,9 cm",Musées royaux d'art et d'histoire/Koninklijke Musea voor Kunst en Geschiedenis,"This scarab is very worn, but the inscription on the base is still legible. The hieroglyphs form the wish: ‘May Amon give life’ (“Imn di ankh”). The ribbed elytrae of the scarab suggests that it dates from the 25th-26th dynasty.",English,https://carmentis.be:443/eMP/eMuseumPlus?service=ExternalInterface&module=collection&objectId=85170&viewType=detailView,,e.07953.jpg
Iran,IR.3142,,,Iranian,,3500 BC - 2900 BC,,,"Height: 1,2 cm",Musées royaux d'art et d'histoire/Koninklijke Musea voor Kunst en Geschiedenis,"Dogs with pointed ears and curled tail are lengthwise perforated and may have been sewn on clothing or worn as pendants. Such pendants in precious metal were discovered in late Uruk/Djemdet Nasr layers at Susa and similar dogs are depicted on Uruk era seal impressions from Susa and Tepe Sharafabad. Representations of Saluki or greyhound type dogs were already common on painted pottery at the Susa A graveyard dating from the early 4th millennium. In Mesopotamia, dogs were associated with Bau or Gula, the goddess of healing, and statuettes and pendants were dedicated at her temples. B.O.",English,https://carmentis.be:443/eMP/eMuseumPlus?service=ExternalInterface&module=collection&objectId=173128&viewType=detailView,,ir.3142.jpg
Iran,IR.3143,,,Iranian,,3500 BC - 2900 BC,,,"Height: 1,2 cm",Musées royaux d'art et d'histoire/Koninklijke Musea voor Kunst en Geschiedenis,"dogs with pointed ears and curled tail are lengthwise perforated and may have been sewn on clothing or worn as pendants. Such pendants in precious metal were discovered in late Uruk/Djemdet Nasr layers at Susa and similar dogs are depicted on Uruk era seal impressions from Susa and Tepe Sharafabad. Representations of Saluki or greyhound type dogs were already common on painted pottery at the Susa A graveyard dating from the early 4th millennium. In Mesopotamia, dogs were associated with Bau or Gula, the goddess of healing, and statuettes and pendants were dedicated at her temples. The dog with the collar, drooping ears and a tail forming an eyelet may be such a late pendant.B.O.",English,https://carmentis.be:443/eMP/eMuseumPlus?service=ExternalInterface&module=collection&objectId=173129&viewType=detailView,,ir.3143.jpg
African musical instruments,KUM0014,,,Acholi,,AD 2017,,,,Kenyatta University - Department of Music and Dance,"""The soundboard of the harp here is made of wood, rather than skin as is the case in the communities. The strings are made of nylon instead of natural fibres. The number of strings of the adungu varies from nine to fifteen. This adungu, built by the Kenyan Daniel Mabonga has twelve strings. The Acholi adungu is played in trio, together with two bigger versions. The harp is used to accompany the singing and the dance. It can be used for solo performances as well. Playing technique: by picking and plucking the strings. One of the players of the trio is the soloist singer; singers in the back may accompany the play."" (Valentine Kihuha; Daniel Mabonga, 21 November 2018)",English,https://carmentis.be:443/eMP/eMuseumPlus?service=ExternalInterface&module=collection&objectId=363025&viewType=detailView,,kum0014.jpg
Near East,O.00422,,Cylinder seal with suppliant and god,Kassite,,1600 BC - 1180 BC,,,Height: 4 cm,Musées royaux d'art et d'histoire/Koninklijke Musea voor Kunst en Geschiedenis,"A bearded figure stands near a kneeling man, his hands folded together, in a begging gesture. In the background a cross, diamond and dog (?)… Translation of the inscription : (may) the god… (be) my protection… May the mercifulness of… be favourable to me (?)…",English,https://carmentis.be:443/eMP/eMuseumPlus?service=ExternalInterface&module=collection&objectId=87105&viewType=detailView,,o.00422.jpg
Near East,O.01404,,Cylinder seal with quadrupeds and a temple,Mesopotamia,,3100 BC - 2900 BC,,,"Height: 4,7 cm, Width: 4,1 cm",Musées royaux d'art et d'histoire/Koninklijke Musea voor Kunst en Geschiedenis,Two quadrupeds before a monumental gate (a temple with vase for libations) and a tree. The theme may refer to cosmological stability and worldly authority.,English,https://carmentis.be:443/eMP/eMuseumPlus?service=ExternalInterface&module=collection&objectId=88092&viewType=detailView,,o.01404.jpg
China,V.1303 AB,,Teapot on high foot,,,,,,,Musées royaux d'art et d'histoire/Koninklijke Musea voor Kunst en Geschiedenis,"This type of underglaze brown is also called 'capucine ware' or 'Batavia brown'. The shape, with its wide-spreading foot, is quite unusual and may have been ordered after a model of European metalware or porcelain.",English,https://carmentis.be:443/eMP/eMuseumPlus?service=ExternalInterface&module=collection&objectId=212458&viewType=detailView,,v.1303_ab.jpg
