collectionName,inventoryNb,objectName,objectTitle,objectCulture,geography,dating,material,technique,dimensions,legalRightOwner,objectDescription,objectLanguage,url,imageurl,image
Amérique,AAM 00673,,Flacon à décor noir sur blanc,Pueblos,,AD 900 - AD 1200,,,,Musées royaux d'art et d'histoire/Koninklijke Musea voor Kunst en Geschiedenis,"Flacon en terre cuite couverte d'une couche fine d'engobe blanc et décoré de motifs géométriques (zigzags) peints en noir. Cette pièce, d’une hauteur inférieure à 11 cm, dispose de caractéristiques formelles tout à fait inhabituelles. Il s’agit effectivement de la seule poterie de la collection exhibant, à l’encolure, une réduction significative du diamètre intérieur qui ne représente plus qu’environ le tiers du diamètre maximale. Cette propriété nous permet, selon les descriptions céramiques établies par Hélène Balfet, d’assurer qu’il s’agit du seul exemplaire possédant un réel goulot dont l’ouverture est marquée par un léger rebord aménagé et dont l’orientation générale semble légèrement déviante. Tous ces indices formels nous mènent à identifier ce récipient comme étant une bouteille de taille réduite, inférieure à 12 cm, c’est-à-dire, un flacon. Les différents traitements préliminaires de la surface, à savoir le lissage et le probable polissage, semblent avoir été bâclés au vu du manque d’homogénéité apparent de cette dernière. Un léger engobe a ensuite été appliqué.",Français,https://carmentis.be:443/eMP/eMuseumPlus?service=ExternalInterface&module=collection&objectId=143210&viewType=detailView,,aam_00673.jpg
Égypte,E.02194,,Hache en pierre,Égyptienne,,4200 BC - 3000 BC,,,"Hauteur: 11,2 cm, Largeur: 6,1 cm, Profondeur: 2,5 cm",Musées royaux d'art et d'histoire/Koninklijke Musea voor Kunst en Geschiedenis,"Cette hache, qui a été fabriquée dans un matériau provenant du Désert Oriental, mais pas encore déterminé, se caractérise par un tranchant non rectiligne, légèrement incurvé sur un côté et usé en son centre. Sur la partie effilée, on remarque des petites entailles qui démontrent que la pièce a effectivement servi. Ce type d'outil était destiné à accomplir des travaux domestiques et agricoles.",Français,https://carmentis.be:443/eMP/eMuseumPlus?service=ExternalInterface&module=collection&objectId=77417&viewType=detailView,,e.02194.jpg
Iran,IR.0572,,Bracelet en bronze,Iranienne,,1300 BC - 601 BC,,,,Musées royaux d'art et d'histoire/Koninklijke Musea voor Kunst en Geschiedenis,"Bracelet. Les deux bouts se terminent en têtes de tigres, plates, fortement stylisées. Derrière les têtes quelques rainures transversales.  Des lions et des têtes léonines ornent fréquemment des bracelets, comme d’ailleurs aussi bien des épingles. La stylisation avec laquelle la tête de lion est vue de haut en bas se retrouve également sur une hallebarde et sur un carquois du Luristan conservé au Metropolitan Museum of Art. Il s’agit effectivement d’une stylisation qui perdura longtemps. Un bracelet similaire était encore porté par un roi élamite du 7e siècle, représenté sur un relief mis au jour à Suse.",Français,https://carmentis.be:443/eMP/eMuseumPlus?service=ExternalInterface&module=collection&objectId=93881&viewType=detailView,,ir.0572.jpg
Japon,JP.01916,,"Les acteurs Ichikawa Monnosuke II (dr.) dans le rôle de Saizaburô et Yoshizawa Iiroha I dans le rôle d'Okoma, deux amants tragiques",,,AD 1776,,,"Hauteur: 31,5 cm, Largeur: 15 cm",Musées royaux d'art et d'histoire/Koninklijke Musea voor Kunst en Geschiedenis,"Format hosoban. Sur cette estampe, Ichikawa Monnosuke II dans le rôle d'Obana Saizaburô, coiffé d'une perruque féminine, rend visite à Yoshizawa Iroha I qui joue Okoma, la fille du marchand Shirokiya Shôbei (dont le nom figure sur le livre de comptes pendu au mur). Okoma et Saizaburô formaient l'un des célèbres couples d'amants tragiques et leur histoire fut portée au kabuki pour la première fois le 3e jour du 3e mois 1776, au théâtre Nakamura-za d'Edo. Selon le grand spécialiste japonais Asano Shûgô, Ichikawa Monnosuke II avait été engagé par le théâtre Morita-za dès l'ouverture de la saison, le 11e mois 1775, pour un an. À l'affiche du 5e mois 1776, ce théâtre mit en scène la pièce en question. Toutefois, d'après le programme, Monnosuke II jouait effectivement le personnage de Saizaburô mais avec Nakamura Tomijûrô I dans celui de Okoma, tandis que Iroha I tenait un autre rôle. On peut donc aisément supposer que cette estampe fut imprimée avant la première représentation du nouveau spectacle, c'est-à-dire avant que n'intervienne ce changement dans la distribution. Que l'estampe fût avant tout le souvenir d'un spectacle ponctuel obligeait les éditeurs à bien connaître le programme des différents théâtres, la distribution artistique et les détails des costumes, pour leur permettre d'imprimer leurs estampes soit à l'avance et les vendre dès la première, soit sitôt celle-ci intervenue. Cette dernière solution était évidemment la plus sûre, mais l'autre, risquée, procurait normalement des bénéfices plus importants.",Français,https://carmentis.be:443/eMP/eMuseumPlus?service=ExternalInterface&module=collection&objectId=165069&viewType=detailView,,jp.01916.jpg
